NOAA storms data
…
Tabular data

You can get tabular data for basins, storms, or years, (or all data). storm_data() and the next function storm_shp() figure out what files to get, and gets them from an ftp server, and saves them to your machine. Do let us know if you have any problems with paths on your machine, and we'll fix 'em. The result from storm_data() is a dplyr-like data.frame with a easy summary that makes large datasets easy to view. 

First, by basin (one of EP, NA, NI, SA, SI, SP, or WP)

storm_data(basin='WP')

#> # A tibble: 99,028 x 200
#>    serial_num season   num basin sub_basin name  iso_time nature latitude
#>    <chr>       <int> <int> <chr> <chr>     <chr> <chr>    <chr>     <dbl>
#>  1 1884177N1…   1884     1 " WP" " MM"     NOT … 1884-06… " NR"      -999
#>  2 1884177N1…   1884     1 " WP" " MM"     NOT … 1884-06… " NR"      -999
#>  3 1884177N1…   1884     1 " WP" " MM"     NOT … 1884-06… " NR"      -999
#>  4 1884177N1…   1884     1 " WP" " MM"     NOT … 1884-06… " NR"      -999
#>  5 1884177N1…   1884     1 " WP" " MM"     NOT … 1884-06… " NR"      -999
#>  6 1884177N1…   1884     1 " WP" " MM"     NOT … 1884-06… " NR"      -999
#>  7 1884177N1…   1884     1 " WP" " MM"     NOT … 1884-06… " NR"      -999
#>  8 1884177N1…   1884     1 " WP" " MM"     NOT … 1884-06… " NR"      -999
#>  9 1884177N1…   1884     1 " WP" " MM"     NOT … 1884-06… " NR"      -999
#> 10 1884177N1…   1884     1 " WP" " MM"     NOT … 1884-06… " NR"      -999
#> # … with 99,018 more rows, and 191 more variables: longitude <dbl>,
#> #   wind.wmo. <dbl>, pres.wmo. <dbl>, center <chr>,
#> #   wind.wmo..percentile <dbl>, pres.wmo..percentile <dbl>,
#> #   track_type <chr>, latitude_for_mapping <dbl>,
#> #   longitude_for_mapping <dbl>, current.basin <chr>,
#> #   hurdat_atl_lat <dbl>, hurdat_atl_lon <dbl>, hurdat_atl_grade <dbl>,
#> #   hurdat_atl_wind <dbl>, hurdat_atl_pres <dbl>, td9636_lat <dbl>,
#> #   td9636_lon <dbl>, td9636_grade <dbl>, td9636_wind <dbl>,
#> #   td9636_pres <dbl>, reunion_lat <dbl>, reunion_lon <dbl>,
…
Or by year, from 1842 to 2014.

storm_data(year=1941)

#> # A tibble: 1,766 x 200
#>    serial_num season   num basin sub_basin name  iso_time nature latitude
#>    <chr>       <int> <int> <chr> <chr>     <chr> <chr>    <chr>     <dbl>
#>  1 1940215S1…   1941     1 " SP" " EA"     NOT … 1940-08… " NR"      -999
#>  2 1940215S1…   1941     1 " SP" " EA"     NOT … 1940-08… " NR"      -999
#>  3 1940215S1…   1941     1 " SP" " EA"     NOT … 1940-08… " NR"      -999
#>  4 1940215S1…   1941     1 " SP" " EA"     NOT … 1940-08… " NR"      -999
#>  5 1940215S1…   1941     1 " SP" " EA"     NOT … 1940-08… " NR"      -999
#>  6 1940215S1…   1941     1 " SP" " EA"     NOT … 1940-08… " NR"      -999
#>  7 1940215S1…   1941     1 " SP" " EA"     NOT … 1940-08… " NR"      -999
#>  8 1940215S1…   1941     1 " SP" " EA"     NOT … 1940-08… " NR"      -999
#>  9 1940215S1…   1941     1 " SP" " EA"     NOT … 1940-08… " NR"      -999
#> 10 1940215S1…   1941     1 " SP" " EA"     NOT … 1940-08… " NR"      -999
#> # … with 1,756 more rows, and 191 more variables: longitude <dbl>,
#> #   wind.wmo. <dbl>, pres.wmo. <dbl>, center <chr>,
#> #   wind.wmo..percentile <dbl>, pres.wmo..percentile <dbl>,
#> #   track_type <chr>, latitude_for_mapping <dbl>,
#> #   longitude_for_mapping <dbl>, current.basin <chr>,
#> #   hurdat_atl_lat <dbl>, hurdat_atl_lon <dbl>, hurdat_atl_grade <dbl>,
#> #   hurdat_atl_wind <dbl>, hurdat_atl_pres <dbl>, td9636_lat <dbl>,
#> #   td9636_lon <dbl>, td9636_grade <dbl>, td9636_wind <dbl>,
#> #   td9636_pres <dbl>, reunion_lat <dbl>, reunion_lon <dbl>,
…
